In-Class Lab Exercises
…
Rows: 10 Columns: 3
── Column specification ────────────────────────────────────────────────────────
Delimiter: ","
chr (3): Color, Description, Details

ℹ Use `spec()` to retrieve the full column specification for this data.
ℹ Specify the column types or set `show_col_types = FALSE` to quiet this message.

joined_df <- diamonds |>  
    left_join(diamond_color, by = c('color' = 'Color')) |> 
    select(carat, color, Description, Details)

joined_df

# A tibble: 53,940 × 4
   carat color Description    Details                    
   <dbl> <chr> <chr>          <chr>                      
 1  0.23 E     Colorless      Minute traces of color     
 2  0.21 E     Colorless      Minute traces of color     
 3  0.23 E     Colorless      Minute traces of color     
 4  0.29 I     Near Colorless Slightly detectable color  
 5  0.31 J     Near Colorless Slightly detectable color  
 6  0.24 J     Near Colorless Slightly detectable color  
 7  0.24 I     Near Colorless Slightly detectable color  
 8  0.26 H     Near Colorless Color is dificult to detect
 9  0.22 E     Colorless      Minute traces of color     
10  0.23 H     Near Colorless Color is dificult to detect
# ℹ 53,930 more rows
…
Rows: 2702 Columns: 4
── Column specification ────────────────────────────────────────────────────────
Delimiter: ","
chr  (1): subgroup
dbl  (2): approval, disapproval
date (1): date

ℹ Use `spec()` to retrieve the full column specification for this data.
ℹ Specify the column types or set `show_col_types = FALSE` to quiet this message.

trump_data

# A tibble: 2,702 × 4
   subgroup date       approval disapproval
   <chr>    <date>        <dbl>       <dbl>
 1 Voters   2020-10-04     44.7        52.2
 2 Adults   2020-10-04     43.2        52.6
 3 Adults   2020-10-03     43.2        52.6
 4 Voters   2020-10-03     45.0        51.7
 5 Adults   2020-10-02     43.3        52.4
 6 Voters   2020-10-02     44.5        52.1
 7 Voters   2020-10-01     44.1        52.8
 8 Adults   2020-10-01     42.7        53.3
 9 Adults   2020-09-30     42.2        53.7
10 Voters   2020-09-30     44.2        52.7
# ℹ 2,692 more rows

trump_longer <- trump_data |>
    pivot_longer(
        cols = c('approval', 'disapproval'),
        names_to = "rating_type",
        values_to = "rating_value"
    ) 
trump_longer

# A tibble: 5,404 × 4
   subgroup date       rating_type rating_value
   <chr>    <date>     <chr>              <dbl>
 1 Voters   2020-10-04 approval            44.7
 2 Voters   2020-10-04 disapproval         52.2
 3 Adults   2020-10-04 approval            43.2
 4 Adults   2020-10-04 disapproval         52.6
 5 Adults   2020-10-03 approval            43.2
 6 Adults   2020-10-03 disapproval         52.6
 7 Voters   2020-10-03 approval            45.0
 8 Voters   2020-10-03 disapproval         51.7
 9 Adults   2020-10-02 approval            43.3
10 Adults   2020-10-02 disapproval         52.4
# ℹ 5,394 more rows
…
library(palmerpenguins)

Attaching package: 'palmerpenguins'

The following object is masked _by_ '.GlobalEnv':

    penguins

The following object is masked from 'package:modeldata':

    penguins

penguins

# A tibble: 344 × 8
   species island    bill_length_mm bill_depth_mm flipper_length_mm body_mass_g
   <chr>   <chr>              <dbl>         <dbl>             <dbl>       <dbl>
 1 Adelie  Torgersen           39.1          18.7               181        3750
 2 Adelie  Torgersen           39.5          17.4               186        3800
 3 Adelie  Torgersen           40.3          18                 195        3250
 4 Adelie  Torgersen           NA            NA                  NA          NA
 5 Adelie  Torgersen           36.7          19.3               193        3450
 6 Adelie  Torgersen           39.3          20.6               190        3650
 7 Adelie  Torgersen           38.9          17.8               181        3625
 8 Adelie  Torgersen           39.2          19.6               195        4675
 9 Adelie  Torgersen           34.1          18.1               193        3475
10 Adelie  Torgersen           42            20.2               190        4250
# ℹ 334 more rows
# ℹ 2 more variables: sex <chr>, year <dbl>
…
